[
  //NOTES:
  //Valeurs possible pour le champ (schedueType): daily, weekly or monthly.
  //Valeurs possible pour le champ (days): "mon, tue, wed, thu, fri", "sat", "sun".
  {
    "nom": "admweb_mail -e Local",
    "argument": "admweb_mail",
    "description": "alain lavigne",
    "scheduleType": "daily",
    "weeksInterval": "",
    "days": "",
    "schedule": "2020-08-26 6:00",
    "author": "UQAM\\desabrais_f",
    "execAction": "e:\\production\\batch.exe admweb_mail"
  }
]